…
``` r
dn_lq_nc <- full_join(dn_nc, lq_nc, by = "state")
```

    ## Warning in full_join(dn_nc, lq_nc, by = "state"): Detected an unexpected many-to-many relationship between `x` and `y`.
    ## ℹ Row 1 of `x` matches multiple rows in `y`.
    ## ℹ Row 1 of `y` matches multiple rows in `x`.
    ## ℹ If a many-to-many relationship is expected, set `relationship =
    ##   "many-to-many"` to silence this warning.

``` r
dn_lq_nc
```

    ## # A tibble: 336 × 11
    ##    address.x    city.x state zip.x longitude.x latitude.x address.y city.y zip.y
    ##    <chr>        <chr>  <chr> <chr>       <dbl>      <dbl> <chr>     <chr>  <chr>
    ##  1 1 Regent Pa… Ashev… NC    28806       -82.6       35.6 165 Hwy … "\nBo… 28607
    ##  2 1 Regent Pa… Ashev… NC    28806       -82.6       35.6 3127 Slo… "\nCh… 28208
    ##  3 1 Regent Pa… Ashev… NC    28806       -82.6       35.6 4900 Sou… "\nCh… 28217
    ##  4 1 Regent Pa… Ashev… NC    28806       -82.6       35.6 4414 Dur… "\nDu… 27707
    ##  5 1 Regent Pa… Ashev… NC    28806       -82.6       35.6 1910 Wes… "\nDu… 27713
    ##  6 1 Regent Pa… Ashev… NC    28806       -82.6       35.6 1201 Lan… "\nGr… 27407
    ##  7 1 Regent Pa… Ashev… NC    28806       -82.6       35.6 1607 Fai… "\nCo… 28613
    ##  8 1 Regent Pa… Ashev… NC    28806       -82.6       35.6 191 Cres… "\nCa… 27518
    ##  9 1 Regent Pa… Ashev… NC    28806       -82.6       35.6 2211 Sum… "\nRa… 27612
    ## 10 1 Regent Pa… Ashev… NC    28806       -82.6       35.6 1001 Aer… "\nMo… 27560
    ## # ℹ 326 more rows
    ## # ℹ 2 more variables: longitude.y <dbl>, latitude.y <dbl>
…
``` r
dn_lq_tx <- full_join(dn_tx, lq_tx, by = "state")
```

    ## Warning in full_join(dn_tx, lq_tx, by = "state"): Detected an unexpected many-to-many relationship between `x` and `y`.
    ## ℹ Row 1 of `x` matches multiple rows in `y`.
    ## ℹ Row 1 of `y` matches multiple rows in `x`.
    ## ℹ If a many-to-many relationship is expected, set `relationship =
    ##   "many-to-many"` to silence this warning.

``` r
dn_lq_tx
```

    ## # A tibble: 47,400 × 11
    ##    address.x    city.x state zip.x longitude.x latitude.x address.y city.y zip.y
    ##    <chr>        <chr>  <chr> <chr>       <dbl>      <dbl> <chr>     <chr>  <chr>
    ##  1 120 East I-… Abile… TX    79601       -99.6       32.4 3018 Cat… "\nAb… 79606
    ##  2 120 East I-… Abile… TX    79601       -99.6       32.4 3501 Wes… "\nAb… 79601
    ##  3 120 East I-… Abile… TX    79601       -99.6       32.4 14925 La… "\nAd… 75254
    ##  4 120 East I-… Abile… TX    79601       -99.6       32.4 909 East… "\nAl… 78516
    ##  5 120 East I-… Abile… TX    79601       -99.6       32.4 2400 Eas… "\nAl… 78332
    ##  6 120 East I-… Abile… TX    79601       -99.6       32.4 1220 Nor… "\nAl… 75013
    ##  7 120 East I-… Abile… TX    79601       -99.6       32.4 1165 Hwy… "\nAl… 76009
    ##  8 120 East I-… Abile… TX    79601       -99.6       32.4 880 Sout… "\nAl… 77511
    ##  9 120 East I-… Abile… TX    79601       -99.6       32.4 1708 Int… "\nAm… 79103
    ## 10 120 East I-… Abile… TX    79601       -99.6       32.4 9305 Eas… "\nAm… 79118
    ## # ℹ 47,390 more rows
    ## # ℹ 2 more variables: longitude.y <dbl>, latitude.y <dbl>
…
``` r
dn_lq_va <- full_join(dn_va, lq_va, by = "state")
```

    ## Warning in full_join(dn_va, lq_va, by = "state"): Detected an unexpected many-to-many relationship between `x` and `y`.
    ## ℹ Row 1 of `x` matches multiple rows in `y`.
    ## ℹ Row 1 of `y` matches multiple rows in `x`.
    ## ℹ If a many-to-many relationship is expected, set `relationship =
    ##   "many-to-many"` to silence this warning.

``` r
dn_lq_va
```

    ## # A tibble: 392 × 11
    ##    address.x    city.x state zip.x longitude.x latitude.x address.y city.y zip.y
    ##    <chr>        <chr>  <chr> <chr>       <dbl>      <dbl> <chr>     <chr>  <chr>
    ##  1 7214 Richmo… Alexa… VA    22306       -77.1       38.8 1803 Emm… "\nCh… 22901
    ##  2 7214 Richmo… Alexa… VA    22306       -77.1       38.8 3320 Can… "\nLy… 24502
    ##  3 7214 Richmo… Alexa… VA    22306       -77.1       38.8 6950 Nov… "\nMa… 20109
    ##  4 7214 Richmo… Alexa… VA    22306       -77.1       38.8 1387 Nor… "\nNo… 23502
    ##  5 7214 Richmo… Alexa… VA    22306       -77.1       38.8 192 Newt… "\nVi… 23462
    ##  6 7214 Richmo… Alexa… VA    22306       -77.1       38.8 1450 Tyl… "\nRa… 24141
    ##  7 7214 Richmo… Alexa… VA    22306       -77.1       38.8 1301 Hug… "\nMi… 23113
    ##  8 7214 Richmo… Alexa… VA    22306       -77.1       38.8 16280 In… "\nDo… 23047
    ##  9 7214 Richmo… Alexa… VA    22306       -77.1       38.8 9040 Pam… "\nRi… 23237
    ## 10 7214 Richmo… Alexa… VA    22306       -77.1       38.8 140 Sher… "\nSa… 24153
    ## # ℹ 382 more rows
    ## # ℹ 2 more variables: longitude.y <dbl>, latitude.y <dbl>
…
